Tue Apr 16 17:44:24 2024
WARNING: Nan, Inf or huge value in QACC at DOF 3. The simulation is unstable. Time = 22.2500.

Tue Apr 16 23:14:40 2024
WARNING: Nan, Inf or huge value in QACC at DOF 3. The simulation is unstable. Time = 96.9925.

Tue Apr 16 23:14:52 2024
WARNING: Nan, Inf or huge value in QACC at DOF 4. The simulation is unstable. Time = 7.3210.

Wed Apr 17 11:32:20 2024
WARNING: Nan, Inf or huge value in QACC at DOF 4. The simulation is unstable. Time = 1.9480.

Sun May  5 19:12:30 2024
WARNING: Nan, Inf or huge value in QACC at DOF 2. The simulation is unstable. Time = 0.0400.

Sun May  5 19:12:30 2024
WARNING: Nan, Inf or huge value in QACC at DOF 2. The simulation is unstable. Time = 0.0350.

Sun May  5 19:12:31 2024
WARNING: Nan, Inf or huge value in QACC at DOF 2. The simulation is unstable. Time = 0.0350.

Sun May  5 19:12:31 2024
WARNING: Nan, Inf or huge value in QACC at DOF 2. The simulation is unstable. Time = 0.0350.

Sun May  5 19:12:31 2024
WARNING: Nan, Inf or huge value in QACC at DOF 2. The simulation is unstable. Time = 0.0350.

Sun May  5 19:12:31 2024
WARNING: Nan, Inf or huge value in QACC at DOF 2. The simulation is unstable. Time = 0.0350.

Sun May  5 19:12:31 2024
WARNING: Nan, Inf or huge value in QACC at DOF 26. The simulation is unstable. Time = 0.0300.

Sun May  5 19:12:32 2024
WARNING: Nan, Inf or huge value in QACC at DOF 26. The simulation is unstable. Time = 0.0300.

Sun May  5 19:12:32 2024
WARNING: Nan, Inf or huge value in QACC at DOF 26. The simulation is unstable. Time = 0.0300.

Sun May  5 19:12:32 2024
WARNING: Nan, Inf or huge value in QACC at DOF 26. The simulation is unstable. Time = 0.0300.

Sun May  5 19:12:32 2024
WARNING: Nan, Inf or huge value in QACC at DOF 26. The simulation is unstable. Time = 0.0300.

Sun May  5 19:12:32 2024
WARNING: Nan, Inf or huge value in QACC at DOF 26. The simulation is unstable. Time = 0.0300.

Sun May  5 19:12:33 2024
WARNING: Nan, Inf or huge value in QACC at DOF 26. The simulation is unstable. Time = 0.0300.

Sun May  5 19:12:33 2024
WARNING: Nan, Inf or huge value in QACC at DOF 26. The simulation is unstable. Time = 0.0300.

Sun May  5 19:12:33 2024
WARNING: Nan, Inf or huge value in QACC at DOF 26. The simulation is unstable. Time = 0.0300.

Sun May  5 19:12:33 2024
WARNING: Nan, Inf or huge value in QACC at DOF 26. The simulation is unstable. Time = 0.0300.

Sun May  5 19:12:33 2024
WARNING: Nan, Inf or huge value in QACC at DOF 26. The simulation is unstable. Time = 0.0300.

Sun May  5 19:12:34 2024
WARNING: Nan, Inf or huge value in QACC at DOF 26. The simulation is unstable. Time = 0.0300.

Sun May  5 19:12:34 2024
WARNING: Nan, Inf or huge value in QACC at DOF 26. The simulation is unstable. Time = 0.0300.

Sun May  5 19:12:34 2024
WARNING: Nan, Inf or huge value in QACC at DOF 26. The simulation is unstable. Time = 0.0300.

Sun May  5 19:12:34 2024
WARNING: Nan, Inf or huge value in QACC at DOF 14. The simulation is unstable. Time = 0.0300.

Sun May  5 19:12:34 2024
WARNING: Nan, Inf or huge value in QACC at DOF 14. The simulation is unstable. Time = 0.0300.

Sun May  5 19:12:35 2024
WARNING: Nan, Inf or huge value in QACC at DOF 14. The simulation is unstable. Time = 0.0300.

Sun May  5 19:12:35 2024
WARNING: Nan, Inf or huge value in QACC at DOF 14. The simulation is unstable. Time = 0.0300.

Sun May  5 19:12:35 2024
WARNING: Nan, Inf or huge value in QACC at DOF 14. The simulation is unstable. Time = 0.0300.

Sun May  5 19:12:35 2024
WARNING: Nan, Inf or huge value in QACC at DOF 14. The simulation is unstable. Time = 0.0300.

Sun May  5 19:12:35 2024
WARNING: Nan, Inf or huge value in QACC at DOF 14. The simulation is unstable. Time = 0.0300.

Sun May  5 19:12:36 2024
WARNING: Nan, Inf or huge value in QACC at DOF 14. The simulation is unstable. Time = 0.0300.

Sun May  5 19:12:36 2024
WARNING: Nan, Inf or huge value in QACC at DOF 14. The simulation is unstable. Time = 0.0300.

Sun May  5 19:12:36 2024
WARNING: Nan, Inf or huge value in QACC at DOF 14. The simulation is unstable. Time = 0.0300.

Sun May  5 19:12:36 2024
WARNING: Nan, Inf or huge value in QACC at DOF 14. The simulation is unstable. Time = 0.0300.

Sun May  5 19:12:37 2024
WARNING: Nan, Inf or huge value in QACC at DOF 14. The simulation is unstable. Time = 0.0300.

Sun May  5 19:12:37 2024
WARNING: Nan, Inf or huge value in QACC at DOF 14. The simulation is unstable. Time = 0.0300.

Sun May  5 19:12:37 2024
WARNING: Nan, Inf or huge value in QACC at DOF 14. The simulation is unstable. Time = 0.0300.

Sun May  5 19:12:37 2024
WARNING: Nan, Inf or huge value in QACC at DOF 14. The simulation is unstable. Time = 0.0300.

Sun May  5 19:12:37 2024
WARNING: Nan, Inf or huge value in QACC at DOF 14. The simulation is unstable. Time = 0.0300.

Sun May  5 19:12:38 2024
WARNING: Nan, Inf or huge value in QACC at DOF 14. The simulation is unstable. Time = 0.0300.

Sun May  5 19:12:38 2024
WARNING: Nan, Inf or huge value in QACC at DOF 14. The simulation is unstable. Time = 0.0300.

Sun May  5 19:12:38 2024
WARNING: Nan, Inf or huge value in QACC at DOF 14. The simulation is unstable. Time = 0.0300.

Sun May  5 19:12:38 2024
WARNING: Nan, Inf or huge value in QACC at DOF 14. The simulation is unstable. Time = 0.0300.

Sun May  5 19:12:38 2024
WARNING: Nan, Inf or huge value in QACC at DOF 14. The simulation is unstable. Time = 0.0300.

Sun May  5 19:12:39 2024
WARNING: Nan, Inf or huge value in QACC at DOF 14. The simulation is unstable. Time = 0.0300.

Sun May  5 19:12:39 2024
WARNING: Nan, Inf or huge value in QACC at DOF 14. The simulation is unstable. Time = 0.0300.

Sun May  5 19:12:39 2024
WARNING: Nan, Inf or huge value in QACC at DOF 14. The simulation is unstable. Time = 0.0300.

Sun May  5 19:12:39 2024
WARNING: Nan, Inf or huge value in QACC at DOF 14. The simulation is unstable. Time = 0.0300.

Sun May  5 19:12:39 2024
WARNING: Nan, Inf or huge value in QACC at DOF 14. The simulation is unstable. Time = 0.0300.

Sun May  5 19:12:40 2024
WARNING: Nan, Inf or huge value in QACC at DOF 14. The simulation is unstable. Time = 0.0300.

Sun May  5 19:12:40 2024
WARNING: Nan, Inf or huge value in QACC at DOF 14. The simulation is unstable. Time = 0.0300.

Sun May  5 19:12:40 2024
WARNING: Nan, Inf or huge value in QACC at DOF 14. The simulation is unstable. Time = 0.0300.

Sun May  5 19:12:40 2024
WARNING: Nan, Inf or huge value in QACC at DOF 14. The simulation is unstable. Time = 0.0300.

Sun May  5 19:12:40 2024
WARNING: Nan, Inf or huge value in QACC at DOF 14. The simulation is unstable. Time = 0.0300.

Sun May  5 19:12:41 2024
WARNING: Nan, Inf or huge value in QACC at DOF 14. The simulation is unstable. Time = 0.0300.

Sun May  5 19:12:41 2024
WARNING: Nan, Inf or huge value in QACC at DOF 14. The simulation is unstable. Time = 0.0300.

Sun May  5 19:12:41 2024
WARNING: Nan, Inf or huge value in QACC at DOF 14. The simulation is unstable. Time = 0.0300.

Sun May  5 19:12:41 2024
WARNING: Nan, Inf or huge value in QACC at DOF 14. The simulation is unstable. Time = 0.0300.

Sun May  5 19:12:41 2024
WARNING: Nan, Inf or huge value in QACC at DOF 14. The simulation is unstable. Time = 0.0300.

Sun May  5 19:12:42 2024
WARNING: Nan, Inf or huge value in QACC at DOF 14. The simulation is unstable. Time = 0.0300.

Sun May  5 19:12:42 2024
WARNING: Nan, Inf or huge value in QACC at DOF 14. The simulation is unstable. Time = 0.0300.

Sun May  5 19:12:42 2024
WARNING: Nan, Inf or huge value in QACC at DOF 14. The simulation is unstable. Time = 0.0300.

Sun May  5 19:12:42 2024
WARNING: Nan, Inf or huge value in QACC at DOF 14. The simulation is unstable. Time = 0.0300.

Sun May  5 19:12:42 2024
WARNING: Nan, Inf or huge value in QACC at DOF 14. The simulation is unstable. Time = 0.0300.

Sun May  5 19:12:43 2024
WARNING: Nan, Inf or huge value in QACC at DOF 14. The simulation is unstable. Time = 0.0300.

Sun May  5 19:12:43 2024
WARNING: Nan, Inf or huge value in QACC at DOF 14. The simulation is unstable. Time = 0.0300.

Sun May  5 19:12:43 2024
WARNING: Nan, Inf or huge value in QACC at DOF 14. The simulation is unstable. Time = 0.0300.

Sun May  5 19:12:43 2024
WARNING: Nan, Inf or huge value in QACC at DOF 14. The simulation is unstable. Time = 0.0300.

Sun May  5 19:12:43 2024
WARNING: Nan, Inf or huge value in QACC at DOF 14. The simulation is unstable. Time = 0.0300.

Sun May  5 19:12:44 2024
WARNING: Nan, Inf or huge value in QACC at DOF 14. The simulation is unstable. Time = 0.0300.

Sun May  5 19:12:44 2024
WARNING: Nan, Inf or huge value in QACC at DOF 14. The simulation is unstable. Time = 0.0300.

Sun May  5 19:12:44 2024
WARNING: Nan, Inf or huge value in QACC at DOF 14. The simulation is unstable. Time = 0.0300.

Sun May  5 19:12:44 2024
WARNING: Nan, Inf or huge value in QACC at DOF 14. The simulation is unstable. Time = 0.0300.

Sun May  5 19:12:44 2024
WARNING: Nan, Inf or huge value in QACC at DOF 14. The simulation is unstable. Time = 0.0300.

Sun May  5 19:12:45 2024
WARNING: Nan, Inf or huge value in QACC at DOF 14. The simulation is unstable. Time = 0.0300.

Sun May  5 19:12:45 2024
WARNING: Nan, Inf or huge value in QACC at DOF 14. The simulation is unstable. Time = 0.0300.

Sun May  5 19:12:45 2024
WARNING: Nan, Inf or huge value in QACC at DOF 14. The simulation is unstable. Time = 0.0300.

Sun May  5 19:12:45 2024
WARNING: Nan, Inf or huge value in QACC at DOF 14. The simulation is unstable. Time = 0.0300.

Sun May  5 19:12:45 2024
WARNING: Nan, Inf or huge value in QACC at DOF 14. The simulation is unstable. Time = 0.0300.

Sun May  5 19:12:46 2024
WARNING: Nan, Inf or huge value in QACC at DOF 14. The simulation is unstable. Time = 0.0300.

Sun May  5 19:12:46 2024
WARNING: Nan, Inf or huge value in QACC at DOF 14. The simulation is unstable. Time = 0.0300.

Sun May  5 19:12:46 2024
WARNING: Nan, Inf or huge value in QACC at DOF 14. The simulation is unstable. Time = 0.0300.

Sun May  5 19:12:46 2024
WARNING: Nan, Inf or huge value in QACC at DOF 14. The simulation is unstable. Time = 0.0300.

Sun May  5 19:12:46 2024
WARNING: Nan, Inf or huge value in QACC at DOF 14. The simulation is unstable. Time = 0.0300.

Sun May  5 19:12:47 2024
WARNING: Nan, Inf or huge value in QACC at DOF 14. The simulation is unstable. Time = 0.0300.

Sun May  5 19:12:47 2024
WARNING: Nan, Inf or huge value in QACC at DOF 14. The simulation is unstable. Time = 0.0300.

Sun May  5 19:12:47 2024
WARNING: Nan, Inf or huge value in QACC at DOF 14. The simulation is unstable. Time = 0.0300.

Sun May  5 19:12:47 2024
WARNING: Nan, Inf or huge value in QACC at DOF 14. The simulation is unstable. Time = 0.0300.

Sun May  5 19:12:47 2024
WARNING: Nan, Inf or huge value in QACC at DOF 14. The simulation is unstable. Time = 0.0300.

Sun May  5 19:12:48 2024
WARNING: Nan, Inf or huge value in QACC at DOF 14. The simulation is unstable. Time = 0.0300.

Sun May  5 19:12:48 2024
WARNING: Nan, Inf or huge value in QACC at DOF 14. The simulation is unstable. Time = 0.0300.

Sun May  5 19:12:48 2024
WARNING: Nan, Inf or huge value in QACC at DOF 14. The simulation is unstable. Time = 0.0300.

Sun May  5 19:12:48 2024
WARNING: Nan, Inf or huge value in QACC at DOF 14. The simulation is unstable. Time = 0.0300.

Sun May  5 19:12:48 2024
WARNING: Nan, Inf or huge value in QACC at DOF 14. The simulation is unstable. Time = 0.0300.

Sun May  5 19:12:49 2024
WARNING: Nan, Inf or huge value in QACC at DOF 14. The simulation is unstable. Time = 0.0300.

Sun May  5 19:12:49 2024
WARNING: Nan, Inf or huge value in QACC at DOF 14. The simulation is unstable. Time = 0.0300.

Sun May  5 19:14:22 2024
WARNING: Nan, Inf or huge value in QACC at DOF 2. The simulation is unstable. Time = 0.0400.

Sun May  5 19:14:22 2024
WARNING: Nan, Inf or huge value in QACC at DOF 2. The simulation is unstable. Time = 0.0350.

Sun May  5 19:14:23 2024
WARNING: Nan, Inf or huge value in QACC at DOF 2. The simulation is unstable. Time = 0.0350.

Sun May  5 19:14:23 2024
WARNING: Nan, Inf or huge value in QACC at DOF 2. The simulation is unstable. Time = 0.0350.

Sun May  5 19:14:23 2024
WARNING: Nan, Inf or huge value in QACC at DOF 2. The simulation is unstable. Time = 0.0350.

Sun May  5 19:14:23 2024
WARNING: Nan, Inf or huge value in QACC at DOF 2. The simulation is unstable. Time = 0.0350.

Sun May  5 19:14:23 2024
WARNING: Nan, Inf or huge value in QACC at DOF 26. The simulation is unstable. Time = 0.0300.

Sun May  5 19:14:24 2024
WARNING: Nan, Inf or huge value in QACC at DOF 26. The simulation is unstable. Time = 0.0300.

Sun May  5 19:14:24 2024
WARNING: Nan, Inf or huge value in QACC at DOF 26. The simulation is unstable. Time = 0.0300.

Sun May  5 19:14:24 2024
WARNING: Nan, Inf or huge value in QACC at DOF 26. The simulation is unstable. Time = 0.0300.

Sun May  5 19:14:24 2024
WARNING: Nan, Inf or huge value in QACC at DOF 26. The simulation is unstable. Time = 0.0300.

Sun May  5 19:14:25 2024
WARNING: Nan, Inf or huge value in QACC at DOF 26. The simulation is unstable. Time = 0.0300.

Sun May  5 19:14:25 2024
WARNING: Nan, Inf or huge value in QACC at DOF 26. The simulation is unstable. Time = 0.0300.

Sun May  5 19:14:25 2024
WARNING: Nan, Inf or huge value in QACC at DOF 26. The simulation is unstable. Time = 0.0300.

Sun May  5 19:14:25 2024
WARNING: Nan, Inf or huge value in QACC at DOF 26. The simulation is unstable. Time = 0.0300.

Sun May  5 19:14:25 2024
WARNING: Nan, Inf or huge value in QACC at DOF 26. The simulation is unstable. Time = 0.0300.

Sun May  5 19:14:26 2024
WARNING: Nan, Inf or huge value in QACC at DOF 26. The simulation is unstable. Time = 0.0300.

Sun May  5 19:14:26 2024
WARNING: Nan, Inf or huge value in QACC at DOF 14. The simulation is unstable. Time = 0.0300.

Sun May  5 19:14:26 2024
WARNING: Nan, Inf or huge value in QACC at DOF 14. The simulation is unstable. Time = 0.0300.

Sun May  5 19:14:26 2024
WARNING: Nan, Inf or huge value in QACC at DOF 14. The simulation is unstable. Time = 0.0300.

Sun May  5 19:14:26 2024
WARNING: Nan, Inf or huge value in QACC at DOF 14. The simulation is unstable. Time = 0.0300.

Sun May  5 19:14:27 2024
WARNING: Nan, Inf or huge value in QACC at DOF 14. The simulation is unstable. Time = 0.0300.

Sun May  5 19:14:27 2024
WARNING: Nan, Inf or huge value in QACC at DOF 14. The simulation is unstable. Time = 0.0300.

Sun May  5 19:14:27 2024
WARNING: Nan, Inf or huge value in QACC at DOF 14. The simulation is unstable. Time = 0.0300.

Sun May  5 19:14:27 2024
WARNING: Nan, Inf or huge value in QACC at DOF 14. The simulation is unstable. Time = 0.0300.

Sun May  5 19:14:27 2024
WARNING: Nan, Inf or huge value in QACC at DOF 14. The simulation is unstable. Time = 0.0300.

Sun May  5 19:14:28 2024
WARNING: Nan, Inf or huge value in QACC at DOF 14. The simulation is unstable. Time = 0.0300.

Sun May  5 19:14:28 2024
WARNING: Nan, Inf or huge value in QACC at DOF 14. The simulation is unstable. Time = 0.0300.

Sun May  5 19:14:28 2024
WARNING: Nan, Inf or huge value in QACC at DOF 14. The simulation is unstable. Time = 0.0300.

Sun May  5 19:14:28 2024
WARNING: Nan, Inf or huge value in QACC at DOF 14. The simulation is unstable. Time = 0.0300.

Sun May  5 19:14:28 2024
WARNING: Nan, Inf or huge value in QACC at DOF 14. The simulation is unstable. Time = 0.0300.

Sun May  5 19:14:29 2024
WARNING: Nan, Inf or huge value in QACC at DOF 14. The simulation is unstable. Time = 0.0300.

